{
	"artifacts" : 
	[
		{
			"path" : "UbuTorrent.app/Contents/MacOS/UbuTorrent"
		}
	],
	"backtrace" : 4,
	"backtraceGraph" : 
	{
		"commands" : 
		[
			"add_executable",
			"_qt_internal_create_executable",
			"qt6_add_executable",
			"qt_add_executable",
			"target_link_libraries",
			"set_target_properties",
			"include",
			"find_package",
			"find_dependency",
			"_qt_internal_find_dependencies",
			"add_compile_definitions",
			"include_directories"
		],
		"files" : 
		[
			"/usr/local/lib/cmake/Qt6Core/Qt6CoreMacros.cmake",
			"CMakeLists.txt",
			"/usr/local/lib/cmake/Qt6Widgets/Qt6WidgetsTargets.cmake",
			"/usr/local/lib/cmake/Qt6Widgets/Qt6WidgetsConfig.cmake",
			"/usr/local/lib/cmake/Qt6/Qt6Config.cmake",
			"/usr/local/lib/cmake/Qt6Core/Qt6CoreTargets.cmake",
			"/usr/local/lib/cmake/Qt6Core/Qt6CoreConfig.cmake",
			"/usr/local/Cellar/cmake/3.23.1/share/cmake/Modules/CMakeFindDependencyMacro.cmake",
			"/usr/local/lib/cmake/Qt6/QtPublicDependencyHelpers.cmake",
			"/usr/local/lib/cmake/Qt6Widgets/Qt6WidgetsDependencies.cmake",
			"/usr/local/lib/cmake/Qt6Gui/Qt6GuiTargets.cmake",
			"/usr/local/lib/cmake/Qt6Gui/Qt6GuiConfig.cmake"
		],
		"nodes" : 
		[
			{
				"file" : 1
			},
			{
				"command" : 3,
				"file" : 1,
				"line" : 77,
				"parent" : 0
			},
			{
				"command" : 2,
				"file" : 0,
				"line" : 851,
				"parent" : 1
			},
			{
				"command" : 1,
				"file" : 0,
				"line" : 523,
				"parent" : 2
			},
			{
				"command" : 0,
				"file" : 0,
				"line" : 559,
				"parent" : 3
			},
			{
				"command" : 4,
				"file" : 1,
				"line" : 102,
				"parent" : 0
			},
			{
				"command" : 7,
				"file" : 1,
				"line" : 50,
				"parent" : 0
			},
			{
				"file" : 4,
				"parent" : 6
			},
			{
				"command" : 7,
				"file" : 4,
				"line" : 177,
				"parent" : 7
			},
			{
				"file" : 3,
				"parent" : 8
			},
			{
				"command" : 6,
				"file" : 3,
				"line" : 50,
				"parent" : 9
			},
			{
				"file" : 2,
				"parent" : 10
			},
			{
				"command" : 5,
				"file" : 2,
				"line" : 57,
				"parent" : 11
			},
			{
				"command" : 4,
				"file" : 0,
				"line" : 524,
				"parent" : 2
			},
			{
				"command" : 6,
				"file" : 3,
				"line" : 40,
				"parent" : 9
			},
			{
				"file" : 9,
				"parent" : 14
			},
			{
				"command" : 9,
				"file" : 9,
				"line" : 91,
				"parent" : 15
			},
			{
				"command" : 8,
				"file" : 8,
				"line" : 14,
				"parent" : 16
			},
			{
				"command" : 7,
				"file" : 7,
				"line" : 47,
				"parent" : 17
			},
			{
				"file" : 6,
				"parent" : 18
			},
			{
				"command" : 6,
				"file" : 6,
				"line" : 50,
				"parent" : 19
			},
			{
				"file" : 5,
				"parent" : 20
			},
			{
				"command" : 5,
				"file" : 5,
				"line" : 57,
				"parent" : 21
			},
			{
				"command" : 8,
				"file" : 8,
				"line" : 14,
				"parent" : 16
			},
			{
				"command" : 7,
				"file" : 7,
				"line" : 47,
				"parent" : 23
			},
			{
				"file" : 11,
				"parent" : 24
			},
			{
				"command" : 6,
				"file" : 11,
				"line" : 50,
				"parent" : 25
			},
			{
				"file" : 10,
				"parent" : 26
			},
			{
				"command" : 5,
				"file" : 10,
				"line" : 57,
				"parent" : 27
			},
			{
				"command" : 10,
				"file" : 1,
				"line" : 43,
				"parent" : 0
			},
			{
				"command" : 11,
				"file" : 1,
				"line" : 55,
				"parent" : 0
			},
			{
				"command" : 11,
				"file" : 1,
				"line" : 58,
				"parent" : 0
			},
			{
				"command" : 11,
				"file" : 1,
				"line" : 59,
				"parent" : 0
			}
		]
	},
	"compileGroups" : 
	[
		{
			"compileCommandFragments" : 
			[
				{
					"fragment" : " -isysroot /Library/Developer/CommandLineTools/SDKs/MacOSX11.1.sdk -mmacosx-version-min=10.15"
				},
				{
					"backtrace" : 13,
					"fragment" : "-fPIC"
				},
				{
					"fragment" : "-std=gnu++17"
				}
			],
			"defines" : 
			[
				{
					"backtrace" : 29,
					"define" : "ASIO_SEPARATE_COMPILATION"
				},
				{
					"backtrace" : 29,
					"define" : "BOOST_ALL_NO_LIB"
				},
				{
					"backtrace" : 29,
					"define" : "BOOST_ASIO_ENABLE_CANCELIO"
				},
				{
					"backtrace" : 29,
					"define" : "BOOST_ASIO_HAS_STD_CHRONO"
				},
				{
					"backtrace" : 29,
					"define" : "BOOST_MULTI_INDEX_DISABLE_SERIALIZATION"
				},
				{
					"backtrace" : 29,
					"define" : "BOOST_NO_DEPRECATED"
				},
				{
					"backtrace" : 29,
					"define" : "BOOST_SYSTEM_NO_DEPRECATED"
				},
				{
					"backtrace" : 29,
					"define" : "NDEBUG"
				},
				{
					"backtrace" : 13,
					"define" : "QT_CORE_LIB"
				},
				{
					"backtrace" : 5,
					"define" : "QT_GUI_LIB"
				},
				{
					"backtrace" : 13,
					"define" : "QT_NO_DEBUG"
				},
				{
					"backtrace" : 5,
					"define" : "QT_WIDGETS_LIB"
				},
				{
					"backtrace" : 29,
					"define" : "WIN32_LEAN_AND_MEAN"
				}
			],
			"includes" : 
			[
				{
					"path" : "/tmp/src/cmake-build-debug-macos"
				},
				{
					"path" : "/tmp/src"
				},
				{
					"backtrace" : 0,
					"path" : "/tmp/src/cmake-build-debug-macos/UbuTorrent_autogen/include"
				},
				{
					"backtrace" : 30,
					"path" : "/tmp/libs/boost_mac64"
				},
				{
					"backtrace" : 31,
					"path" : "/tmp/src/../libs/libtorrent/includes/include"
				},
				{
					"backtrace" : 32,
					"path" : "/tmp/src/include"
				},
				{
					"backtrace" : 13,
					"isSystem" : true,
					"path" : "/usr/local/lib/QtCore.framework"
				},
				{
					"backtrace" : 13,
					"isSystem" : true,
					"path" : "/usr/local/lib/QtCore.framework/Headers"
				},
				{
					"backtrace" : 13,
					"isSystem" : true,
					"path" : "/usr/local/share/qt/mkspecs/macx-clang"
				},
				{
					"backtrace" : 13,
					"isSystem" : true,
					"path" : "/usr/local/include"
				},
				{
					"backtrace" : 5,
					"isSystem" : true,
					"path" : "/usr/local/lib/QtWidgets.framework"
				},
				{
					"backtrace" : 5,
					"isSystem" : true,
					"path" : "/usr/local/lib/QtWidgets.framework/Headers"
				},
				{
					"backtrace" : 5,
					"isSystem" : true,
					"path" : "/usr/local/lib/QtGui.framework"
				},
				{
					"backtrace" : 5,
					"isSystem" : true,
					"path" : "/usr/local/lib/QtGui.framework/Headers"
				}
			],
			"language" : "CXX",
			"languageStandard" : 
			{
				"backtraces" : 
				[
					13,
					13
				],
				"standard" : "17"
			},
			"sourceIndexes" : 
			[
				0,
				1,
				3,
				5,
				6,
				8,
				19
			]
		}
	],
	"dependencies" : 
	[
		{
			"backtrace" : 0,
			"id" : "UbuTorrent_autogen::@6890427a1f51a3e7e1df"
		}
	],
	"id" : "UbuTorrent::@6890427a1f51a3e7e1df",
	"link" : 
	{
		"commandFragments" : 
		[
			{
				"fragment" : "",
				"role" : "flags"
			},
			{
				"fragment" : "-Wl,-rpath,/usr/local/lib -Wl,-rpath,/tmp/src/../libs/libtorrent/lib/mac64",
				"role" : "libraries"
			},
			{
				"backtrace" : 5,
				"fragment" : "/usr/local/lib/QtWidgets.framework/Versions/A/QtWidgets",
				"role" : "libraries"
			},
			{
				"backtrace" : 5,
				"fragment" : "../../libs/libtorrent/lib/mac64/libtorrent-rasterbar.2.0.6.dylib",
				"role" : "libraries"
			},
			{
				"backtrace" : 12,
				"fragment" : "/usr/local/lib/QtGui.framework/Versions/A/QtGui",
				"role" : "libraries"
			},
			{
				"backtrace" : 13,
				"fragment" : "/usr/local/lib/QtCore.framework/Versions/A/QtCore",
				"role" : "libraries"
			},
			{
				"backtrace" : 22,
				"fragment" : "-framework DiskArbitration",
				"role" : "libraries"
			},
			{
				"backtrace" : 22,
				"fragment" : "-framework IOKit",
				"role" : "libraries"
			},
			{
				"fragment" : "-framework",
				"role" : "libraries"
			},
			{
				"fragment" : "OpenGL",
				"role" : "libraries"
			},
			{
				"fragment" : "-framework",
				"role" : "libraries"
			},
			{
				"fragment" : "AGL",
				"role" : "libraries"
			},
			{
				"backtrace" : 28,
				"fragment" : "-framework AppKit",
				"role" : "libraries"
			},
			{
				"backtrace" : 28,
				"fragment" : "-framework ImageIO",
				"role" : "libraries"
			},
			{
				"backtrace" : 28,
				"fragment" : "-framework Metal",
				"role" : "libraries"
			}
		],
		"language" : "CXX"
	},
	"name" : "UbuTorrent",
	"nameOnDisk" : "UbuTorrent",
	"paths" : 
	{
		"build" : ".",
		"source" : "."
	},
	"sourceGroups" : 
	[
		{
			"name" : "Source Files",
			"sourceIndexes" : 
			[
				0,
				1,
				3,
				5,
				6,
				8,
				19
			]
		},
		{
			"name" : "",
			"sourceIndexes" : 
			[
				2,
				4,
				7,
				9,
				14
			]
		},
		{
			"name" : "Header Files",
			"sourceIndexes" : 
			[
				10,
				11,
				12,
				13,
				15,
				16,
				17,
				18
			]
		},
		{
			"name" : "CMake Rules",
			"sourceIndexes" : 
			[
				20
			]
		}
	],
	"sources" : 
	[
		{
			"backtrace" : 0,
			"compileGroupIndex" : 0,
			"isGenerated" : true,
			"path" : "cmake-build-debug-macos/UbuTorrent_autogen/mocs_compilation.cpp",
			"sourceGroupIndex" : 0
		},
		{
			"backtrace" : 4,
			"compileGroupIndex" : 0,
			"path" : "src/dialogtorrent.cpp",
			"sourceGroupIndex" : 0
		},
		{
			"backtrace" : 4,
			"path" : "src/dialogtorrent.ui",
			"sourceGroupIndex" : 1
		},
		{
			"backtrace" : 4,
			"compileGroupIndex" : 0,
			"path" : "src/generalwindow.cpp",
			"sourceGroupIndex" : 0
		},
		{
			"backtrace" : 4,
			"path" : "src/generalwindow.ui",
			"sourceGroupIndex" : 1
		},
		{
			"backtrace" : 4,
			"compileGroupIndex" : 0,
			"path" : "src/main.cpp",
			"sourceGroupIndex" : 0
		},
		{
			"backtrace" : 4,
			"compileGroupIndex" : 0,
			"path" : "src/mainwindow.cpp",
			"sourceGroupIndex" : 0
		},
		{
			"backtrace" : 4,
			"path" : "src/mainwindow.ui",
			"sourceGroupIndex" : 1
		},
		{
			"backtrace" : 4,
			"compileGroupIndex" : 0,
			"path" : "src/widgettorrent.cpp",
			"sourceGroupIndex" : 0
		},
		{
			"backtrace" : 4,
			"path" : "src/widgettorrent.ui",
			"sourceGroupIndex" : 1
		},
		{
			"backtrace" : 4,
			"path" : "include/dialogtorrent.h",
			"sourceGroupIndex" : 2
		},
		{
			"backtrace" : 4,
			"path" : "include/generalwindow.h",
			"sourceGroupIndex" : 2
		},
		{
			"backtrace" : 4,
			"path" : "include/mainwindow.h",
			"sourceGroupIndex" : 2
		},
		{
			"backtrace" : 4,
			"path" : "include/widgettorrent.h",
			"sourceGroupIndex" : 2
		},
		{
			"backtrace" : 4,
			"path" : "resourses/ubutorrent.qrc",
			"sourceGroupIndex" : 1
		},
		{
			"backtrace" : 0,
			"isGenerated" : true,
			"path" : "cmake-build-debug-macos/UbuTorrent_autogen/include/src/ui_dialogtorrent.h",
			"sourceGroupIndex" : 2
		},
		{
			"backtrace" : 0,
			"isGenerated" : true,
			"path" : "cmake-build-debug-macos/UbuTorrent_autogen/include/src/ui_generalwindow.h",
			"sourceGroupIndex" : 2
		},
		{
			"backtrace" : 0,
			"isGenerated" : true,
			"path" : "cmake-build-debug-macos/UbuTorrent_autogen/include/src/ui_mainwindow.h",
			"sourceGroupIndex" : 2
		},
		{
			"backtrace" : 0,
			"isGenerated" : true,
			"path" : "cmake-build-debug-macos/UbuTorrent_autogen/include/src/ui_widgettorrent.h",
			"sourceGroupIndex" : 2
		},
		{
			"backtrace" : 0,
			"compileGroupIndex" : 0,
			"isGenerated" : true,
			"path" : "cmake-build-debug-macos/UbuTorrent_autogen/PBV2GH44NX/qrc_ubutorrent.cpp",
			"sourceGroupIndex" : 0
		},
		{
			"backtrace" : 0,
			"isGenerated" : true,
			"path" : "cmake-build-debug-macos/UbuTorrent_autogen/PBV2GH44NX/qrc_ubutorrent.cpp.rule",
			"sourceGroupIndex" : 3
		}
	],
	"type" : "EXECUTABLE"
}
